{
    "name": "Vanilla.DebugCam.Editor",
    "rootNamespace": "Vanilla.DebugCam.Editor",
    "references": [
        "GUID:ee91fab610a97ca42b053787bfcc03a2",
        "GUID:c691049da3b7def4ebb4478b28023aa1"
    ],
    "includePlatforms": [
        "Editor"
    ],
    "excludePlatforms": [],
    "allowUnsafeCode": false,
    "overrideReferences": false,
    "precompiledReferences": [],
    "autoReferenced": true,
    "defineConstraints": [],
    "versionDefines": [],
    "noEngineReferences": false
}